Lecture 0401 analyze KOWEPS data using ggplot - gitgitWi’s gitgit pages
…
## # A tibble: 6 x 5
## # Groups:   region [2]
##   region                ageg       n   tot   pct
##   <chr>                 <chr>  <int> <int> <dbl>
## 1 강원/충북             middle   417  1257  33.2
## 2 강원/충북             old      555  1257  44.2
## 3 강원/충북             young    285  1257  22.7
## 4 광주/전남/전북/제주도 middle   947  2922  32.4
## 5 광주/전남/전북/제주도 old     1233  2922  42.2
## 6 광주/전남/전북/제주도 young    742  2922  25.4

ageg_reg <- data %>% filter(!is.na(region)) %>% count (region, ageg) %>% group_by(region) %>% mutate(arrate = round(n / sum(n)*100, 2 ))
ageg_reg

## # A tibble: 21 x 4
## # Groups:   region [7]
##    region                ageg       n arrate
##    <chr>                 <chr>  <int>  <dbl>
##  1 강원/충북             middle   417   33.2
##  2 강원/충북             old      555   44.2
##  3 강원/충북             young    285   22.7
##  4 광주/전남/전북/제주도 middle   947   32.4
##  5 광주/전남/전북/제주도 old     1233   42.2
##  6 광주/전남/전북/제주도 young    742   25.4
##  7 대구/경북             middle   637   31.3
##  8 대구/경북             old      928   45.6
##  9 대구/경북             young    471   23.1
## 10 대전/충남             middle   548   37.4
## # … with 11 more rows
…
