Lecture 0402 analyze APTs values around 홍대입구역 using Google Maps API - gitgitWi’s gitgit pages
…
apt$전용면적 <- round(apt$전용면적)
head(apt)

##                     시군구 번지          단지명 전용면적 거래금액
## 1 서울특별시 마포구 공덕동  371 공덕1삼성래미안      115   85,500
## 2 서울특별시 마포구 공덕동  371 공덕1삼성래미안       60   63,900
## 3 서울특별시 마포구 공덕동  371 공덕1삼성래미안       60   65,000
## 4 서울특별시 마포구 공덕동  371 공덕1삼성래미안       60   68,000
## 5 서울특별시 마포구 공덕동  371 공덕1삼성래미안      115   97,000
## 6 서울특별시 마포구 공덕동  371 공덕1삼성래미안       85   84,000

count(apt, 전용면적) %>% arrange(desc(n))

## # A tibble: 106 x 2
##    전용면적     n
##       <dbl> <int>
##  1       85   434
##  2       60   223
##  3      115    90
##  4       59    79
##  5       84    43
##  6       50    31
##  7      114    24
##  8       80    17
##  9      105    16
## 10       32    15
## # … with 96 more rows
…
